{
  "type": "Module",
  "name": "sitestorealbum",
  "version": "-",
  "revision": null,
  "path": "application\/modules\/Sitestorealbum",
  "repository": null,
  "date": "Sat, 09 Apr 2016 11:45:20 +0000",
  "title": "<i><span style=\"color:#999999\">Stores \/ Marketplace - Ecommerce Photo Albums Extension<\/span><i>",
  "description": "<i><span style=\"color:#999999\">Stores \/ Marketplace - Ecommerce Photo Albums Extension<\/span><\/i>",
  "thumb": null,
  "developer": null,
  "authors": [
    "<a href=\"http:\/\/www.socialengineaddons.com\" style=\"text-decoration:underline;\" target=\"_blank\">SocialEngineAddOns<\/a>"
  ],
  "changeLog": null,
  "meta": {
    "date": "Sat, 09 Apr 2016 11:45:20 +0000",
    "title": "<i><span style=\"color:#999999\">Stores \/ Marketplace - Ecommerce Photo Albums Extension<\/span><i>",
    "description": "<i><span style=\"color:#999999\">Stores \/ Marketplace - Ecommerce Photo Albums Extension<\/span><\/i>",
    "developer": null,
    "authors": [
      "<a href=\"http:\/\/www.socialengineaddons.com\" style=\"text-decoration:underline;\" target=\"_blank\">SocialEngineAddOns<\/a>"
    ],
    "changeLog": null
  },
  "actions": [
    "install",
    "upgrade",
    "refresh",
    "enable",
    "disable"
  ],
  "callback": {
    "path": "application\/modules\/Sitestorealbum\/settings\/install.php",
    "class": "Sitestorealbum_Installer",
    "priority": 100
  },
  "dependencies": null,
  "tests": [
    
  ],
  "permissions": [
    
  ],
  "structure": {
    "application\/modules\/Sitestorealbum": {
      "type": "directory",
      "path": "application\/modules\/Sitestorealbum",
      "structure": [
        {
          "path": "Api",
          "dir": true,
          "file": false,
          "perms": "0755",
          "size": 4096,
          "sha1": null
        },
        {
          "path": "Api\/Core.php",
          "dir": false,
          "file": true,
          "perms": "0644",
          "size": 4751,
          "sha1": "de9b4abd791bba04196ed9c2625757f346a35c64"
        },
        {
          "path": "Bootstrap.php",
          "dir": false,
          "file": true,
          "perms": "0644",
          "size": 439,
          "sha1": "4fe551c8af6ec4fe95961fac5d4069c4b0b9e77a"
        },
        {
          "path": "Form",
          "dir": true,
          "file": false,
          "perms": "0755",
          "size": 4096,
          "sha1": null
        },
        {
          "path": "Form\/.htempty",
          "dir": false,
          "file": true,
          "perms": "0644",
          "size": 0,
          "sha1": "da39a3ee5e6b4b0d3255bfef95601890afd80709"
        },
        {
          "path": "Form\/Admin",
          "dir": true,
          "file": false,
          "perms": "0755",
          "size": 4096,
          "sha1": null
        },
        {
          "path": "Form\/Admin\/EditTab.php",
          "dir": false,
          "file": true,
          "perms": "0644",
          "size": 2161,
          "sha1": "b684ab0644c36a23a0111acdfc9fe753ade3d9d8"
        },
        {
          "path": "Form\/Admin\/FeaturedAlbum.php",
          "dir": false,
          "file": true,
          "perms": "0644",
          "size": 1786,
          "sha1": "08cd557180d5dc36d08a2a0730e373301e07d006"
        },
        {
          "path": "Form\/Admin\/Global.php",
          "dir": false,
          "file": true,
          "perms": "0644",
          "size": 4915,
          "sha1": "89c1f408677ff5adb0027ebe47e4485f0cbe2419"
        },
        {
          "path": "Form\/Admin\/ItemOfDayday.php",
          "dir": false,
          "file": true,
          "perms": "0644",
          "size": 2509,
          "sha1": "17c7e579d5922e9efecf68d841e11eb6b7714bde"
        },
        {
          "path": "Form\/Admin\/Manage",
          "dir": true,
          "file": false,
          "perms": "0755",
          "size": 4096,
          "sha1": null
        },
        {
          "path": "Form\/Admin\/Manage\/Filter.php",
          "dir": false,
          "file": true,
          "perms": "0644",
          "size": 852,
          "sha1": "85a65bb2310e173bbcd36294151665a0f1581a63"
        },
        {
          "path": "Form\/Admin\/Settings",
          "dir": true,
          "file": false,
          "perms": "0755",
          "size": 4096,
          "sha1": null
        },
        {
          "path": "Form\/Admin\/Settings\/Level.php",
          "dir": false,
          "file": true,
          "perms": "0644",
          "size": 1733,
          "sha1": "689c741c2ebff073bb996b04b1175e6a2bf6d7b8"
        },
        {
          "path": "Form\/Admin\/Widget.php",
          "dir": false,
          "file": true,
          "perms": "0644",
          "size": 4572,
          "sha1": "e87e4c0c7bb330def73645a90d2052d73e9b5211"
        },
        {
          "path": "Form\/ItemOfDayday.php",
          "dir": false,
          "file": true,
          "perms": "0644",
          "size": 2164,
          "sha1": "f42bce5f183584e88f74a89298a988405a2add63"
        },
        {
          "path": "Form\/Searchwidget.php",
          "dir": false,
          "file": true,
          "perms": "0644",
          "size": 8736,
          "sha1": "d98aff49848e66977c2a0d4241c443bca6e4f88d"
        },
        {
          "path": "Model",
          "dir": true,
          "file": false,
          "perms": "0755",
          "size": 4096,
          "sha1": null
        },
        {
          "path": "Model\/DbTable",
          "dir": true,
          "file": false,
          "perms": "0755",
          "size": 4096,
          "sha1": null
        },
        {
          "path": "Model\/DbTable\/.htempty",
          "dir": false,
          "file": true,
          "perms": "0644",
          "size": 0,
          "sha1": "da39a3ee5e6b4b0d3255bfef95601890afd80709"
        },
        {
          "path": "Plugin",
          "dir": true,
          "file": false,
          "perms": "0755",
          "size": 4096,
          "sha1": null
        },
        {
          "path": "Plugin\/Composer.php",
          "dir": false,
          "file": true,
          "perms": "0644",
          "size": 1149,
          "sha1": "31867cd0f70d1a4d9c5a5cffed0e5529e9bd23b3"
        },
        {
          "path": "Plugin\/Menus.php",
          "dir": false,
          "file": true,
          "perms": "0644",
          "size": 11680,
          "sha1": "4a986200f6d002ead66d9fa79ef6a8ae09986aae"
        },
        {
          "path": "Plugin\/Sitemobile.php",
          "dir": false,
          "file": true,
          "perms": "0644",
          "size": 10547,
          "sha1": "029fcfbb25ff6a2ccf9f9f2dfb89d337f58acac0"
        },
        {
          "path": "controllers",
          "dir": true,
          "file": false,
          "perms": "0755",
          "size": 4096,
          "sha1": null
        },
        {
          "path": "controllers\/AdminAlbumController.php",
          "dir": false,
          "file": true,
          "perms": "0644",
          "size": 10190,
          "sha1": "9626e029220be6fbba3511b7164403b36081ee52"
        },
        {
          "path": "controllers\/AdminLevelController.php",
          "dir": false,
          "file": true,
          "perms": "0644",
          "size": 2503,
          "sha1": "d8ad7958df49c640465943492b67693cd21b1ab2"
        },
        {
          "path": "controllers\/AdminManageController.php",
          "dir": false,
          "file": true,
          "perms": "0644",
          "size": 5178,
          "sha1": "4093c1edd7dd76c46d00b68b8a84ce390e7f3c9d"
        },
        {
          "path": "controllers\/AdminPhotoController.php",
          "dir": false,
          "file": true,
          "perms": "0644",
          "size": 7990,
          "sha1": "503f3e95ad099d25f196899dbb088b9f8c7dba9a"
        },
        {
          "path": "controllers\/AdminSettingsController.php",
          "dir": false,
          "file": true,
          "perms": "0644",
          "size": 8451,
          "sha1": "7f3e7ca9fa5f9b33f26238bba4723485101f7896"
        },
        {
          "path": "controllers\/AdminWidgetsController.php",
          "dir": false,
          "file": true,
          "perms": "0644",
          "size": 1494,
          "sha1": "9e60a965b89d84b44e17cb8561ec16f9175449d2"
        },
        {
          "path": "controllers\/MobiController.php",
          "dir": false,
          "file": true,
          "perms": "0644",
          "size": 2461,
          "sha1": "7fbfdca8f54b81ca9cde8e466475caeba96cca16"
        },
        {
          "path": "externals",
          "dir": true,
          "file": false,
          "perms": "0755",
          "size": 4096,
          "sha1": null
        },
        {
          "path": "externals\/.htaccess",
          "dir": false,
          "file": true,
          "perms": "0644",
          "size": 147,
          "sha1": "9f1638a8edbe1c5d28789e017fb35b2f2465f01e"
        },
        {
          "path": "externals\/images",
          "dir": true,
          "file": false,
          "perms": "0755",
          "size": 4096,
          "sha1": null
        },
        {
          "path": "externals\/images\/.htempty",
          "dir": false,
          "file": true,
          "perms": "0644",
          "size": 0,
          "sha1": "da39a3ee5e6b4b0d3255bfef95601890afd80709"
        },
        {
          "path": "externals\/images\/activity_changecode.png",
          "dir": false,
          "file": true,
          "perms": "0644",
          "size": 89211,
          "sha1": "3e4072fcd1fd2535d0915e97fe333f803c97198a"
        },
        {
          "path": "externals\/images\/enabled0.gif",
          "dir": false,
          "file": true,
          "perms": "0644",
          "size": 1018,
          "sha1": "8f57c40b6a771c8695d412ca34beac2d46a7d22d"
        },
        {
          "path": "externals\/images\/enabled1.gif",
          "dir": false,
          "file": true,
          "perms": "0644",
          "size": 1012,
          "sha1": "5c19528232d7dca4d2eb8eb55064f6d4bdcc3e69"
        },
        {
          "path": "externals\/images\/flip_horizontal.png",
          "dir": false,
          "file": true,
          "perms": "0644",
          "size": 625,
          "sha1": "aef2ebca3d00bd338102c8ba91b4cc1836af5d69"
        },
        {
          "path": "externals\/images\/flip_vertical.png",
          "dir": false,
          "file": true,
          "perms": "0644",
          "size": 669,
          "sha1": "ff907e69ab622d86680688c67ac2c688145644ed"
        },
        {
          "path": "externals\/images\/loader.gif",
          "dir": false,
          "file": true,
          "perms": "0644",
          "size": 404,
          "sha1": "d5f3b09999556ecb5da33466f4233d1d31b885d0"
        },
        {
          "path": "externals\/images\/rotate_ccw.png",
          "dir": false,
          "file": true,
          "perms": "0644",
          "size": 608,
          "sha1": "49616ee556ab6919952b8da2b37fed640faa22e1"
        },
        {
          "path": "externals\/images\/rotate_cw.png",
          "dir": false,
          "file": true,
          "perms": "0644",
          "size": 602,
          "sha1": "9ebb50d335cd87e13bb64207eae94f8642ca1040"
        },
        {
          "path": "externals\/images\/sitestorealbum_goldmedal0.png",
          "dir": false,
          "file": true,
          "perms": "0644",
          "size": 567,
          "sha1": "ad234dcdd0a9e13200acb8681e1cec70d6a8a933"
        },
        {
          "path": "externals\/images\/sitestorealbum_goldmedal1.png",
          "dir": false,
          "file": true,
          "perms": "0644",
          "size": 499,
          "sha1": "bf7ffa625cb2a1a990d792bd3fb42bd6d1e85cf6"
        },
        {
          "path": "externals\/scripts",
          "dir": true,
          "file": false,
          "perms": "0755",
          "size": 4096,
          "sha1": null
        },
        {
          "path": "externals\/scripts\/.htempty",
          "dir": false,
          "file": true,
          "perms": "0644",
          "size": 0,
          "sha1": "da39a3ee5e6b4b0d3255bfef95601890afd80709"
        },
        {
          "path": "externals\/scripts\/composer_photo.js",
          "dir": false,
          "file": true,
          "perms": "0644",
          "size": 7211,
          "sha1": "38fb0c08e13dec454098bc3a36301b0cf50baac4"
        },
        {
          "path": "externals\/scripts\/core.js",
          "dir": false,
          "file": true,
          "perms": "0644",
          "size": 3293,
          "sha1": "24f4c8a26065ea18f155de19173dc58be96a552f"
        },
        {
          "path": "externals\/scripts\/sitemobile",
          "dir": true,
          "file": false,
          "perms": "0755",
          "size": 4096,
          "sha1": null
        },
        {
          "path": "externals\/scripts\/sitemobile\/core.js",
          "dir": false,
          "file": true,
          "perms": "0644",
          "size": 2305,
          "sha1": "31068f99909d892eeba8b942688a124fe8d03be3"
        },
        {
          "path": "externals\/scripts\/slideitmoo-1.1_full_source.js",
          "dir": false,
          "file": true,
          "perms": "0644",
          "size": 14661,
          "sha1": "bea3fa490adf852658eff030794c43f382c98cc8"
        },
        {
          "path": "externals\/styles",
          "dir": true,
          "file": false,
          "perms": "0755",
          "size": 4096,
          "sha1": null
        },
        {
          "path": "externals\/styles\/main.css",
          "dir": false,
          "file": true,
          "perms": "0644",
          "size": 672,
          "sha1": "a4c5b05e54c311ed6cd2ffe94de1950b531068a5"
        },
        {
          "path": "externals\/styles\/mobile.css",
          "dir": false,
          "file": true,
          "perms": "0644",
          "size": 8696,
          "sha1": "d9fdad58de1e6795189eef302b5d91c988240def"
        },
        {
          "path": "externals\/styles\/style_sitestorealbum.css",
          "dir": false,
          "file": true,
          "perms": "0644",
          "size": 9505,
          "sha1": "aad53750083c7912f38e0490b3343aaec0224207"
        },
        {
          "path": "settings",
          "dir": true,
          "file": false,
          "perms": "0755",
          "size": 4096,
          "sha1": null
        },
        {
          "path": "settings\/content.php",
          "dir": false,
          "file": true,
          "perms": "0644",
          "size": 37234,
          "sha1": "98221261fac1fc1e41e73c30573cb2f66f2f5373"
        },
        {
          "path": "settings\/content_user.php",
          "dir": false,
          "file": true,
          "perms": "0644",
          "size": 5487,
          "sha1": "7b98cd86c26fc2572cf40410f90e4f66e8266d00"
        },
        {
          "path": "settings\/install.php",
          "dir": false,
          "file": true,
          "perms": "0644",
          "size": 1987,
          "sha1": "2ca89d0ad14dca9cb2384d6a68fc5f001a4fd059"
        },
        {
          "path": "settings\/manifest.php",
          "dir": false,
          "file": true,
          "perms": "0644",
          "size": 4172,
          "sha1": "de9d3c3ad7d65817f612c5cc36941dcefe82b2b1"
        },
        {
          "path": "settings\/my.sql",
          "dir": false,
          "file": true,
          "perms": "0644",
          "size": 0,
          "sha1": "da39a3ee5e6b4b0d3255bfef95601890afd80709"
        },
        {
          "path": "settings\/sitemobile",
          "dir": true,
          "file": false,
          "perms": "0755",
          "size": 4096,
          "sha1": null
        },
        {
          "path": "settings\/sitemobile\/content.php",
          "dir": false,
          "file": true,
          "perms": "0644",
          "size": 4828,
          "sha1": "e5d5aab52c0bf7ae877bdf013cde1ca18c21d5f7"
        },
        {
          "path": "settings\/sitemobile\/my.sql",
          "dir": false,
          "file": true,
          "perms": "0644",
          "size": 2837,
          "sha1": "cd2ee17743055a7a04a11f0a99a8853350d49bbe"
        },
        {
          "path": "settings\/sitestorealbum_activityfeed",
          "dir": true,
          "file": false,
          "perms": "0755",
          "size": 4096,
          "sha1": null
        },
        {
          "path": "settings\/sitestorealbum_activityfeed\/_activityText.tpl",
          "dir": false,
          "file": true,
          "perms": "0644",
          "size": 20394,
          "sha1": "2980382da3763988bc03812df41850d89503eef5"
        },
        {
          "path": "views",
          "dir": true,
          "file": false,
          "perms": "0755",
          "size": 4096,
          "sha1": null
        },
        {
          "path": "views\/scripts",
          "dir": true,
          "file": false,
          "perms": "0755",
          "size": 4096,
          "sha1": null
        },
        {
          "path": "views\/scripts\/_composeSitestorePhoto.tpl",
          "dir": false,
          "file": true,
          "perms": "0644",
          "size": 4332,
          "sha1": "70278b18f1c68e8797e5559a40317e7de14be5d0"
        },
        {
          "path": "views\/scripts\/_formImagerainbowLightBoxBg.tpl",
          "dir": false,
          "file": true,
          "perms": "0644",
          "size": 2880,
          "sha1": "e280591465d37b1dd243c0e7964328d876a3286d"
        },
        {
          "path": "views\/scripts\/_formImagerainbowLightBoxFont.tpl",
          "dir": false,
          "file": true,
          "perms": "0644",
          "size": 2486,
          "sha1": "688858091a8d032a9d01ea023354f792ea4ab5d4"
        },
        {
          "path": "views\/scripts\/_lightboxImage.tpl",
          "dir": false,
          "file": true,
          "perms": "0644",
          "size": 8035,
          "sha1": "6fe20f2c9477d1216ec09a482d54e5e91edcaab0"
        },
        {
          "path": "views\/scripts\/_lightboxImageAlbum.tpl",
          "dir": false,
          "file": true,
          "perms": "0644",
          "size": 7223,
          "sha1": "94359d209666758eef795119e085f47846c8da7e"
        },
        {
          "path": "views\/scripts\/admin-album",
          "dir": true,
          "file": false,
          "perms": "0755",
          "size": 4096,
          "sha1": null
        },
        {
          "path": "views\/scripts\/admin-album\/add-album-of-day.tpl",
          "dir": false,
          "file": true,
          "perms": "0644",
          "size": 4315,
          "sha1": "bb33af1148df8addbea24b5932e4dd5ef29f0f96"
        },
        {
          "path": "views\/scripts\/admin-album\/delete.tpl",
          "dir": false,
          "file": true,
          "perms": "0644",
          "size": 1117,
          "sha1": "ed22149f37b1a74a62124fa5f703a4d9fef5196c"
        },
        {
          "path": "views\/scripts\/admin-album\/edit-tab.tpl",
          "dir": false,
          "file": true,
          "perms": "0644",
          "size": 428,
          "sha1": "b61c7ea152eb2315e2bebdf963fc46256b13e6fa"
        },
        {
          "path": "views\/scripts\/admin-album\/index.tpl",
          "dir": false,
          "file": true,
          "perms": "0644",
          "size": 5575,
          "sha1": "898d6b71a13bd17884f4e978f055aadf9c70cfd8"
        },
        {
          "path": "views\/scripts\/admin-album\/manage-day-items.tpl",
          "dir": false,
          "file": true,
          "perms": "0644",
          "size": 7418,
          "sha1": "af0986c4ed643ce2c54c5762cbd1b1d045d340a0"
        },
        {
          "path": "views\/scripts\/admin-level",
          "dir": true,
          "file": false,
          "perms": "0755",
          "size": 4096,
          "sha1": null
        },
        {
          "path": "views\/scripts\/admin-level\/index.tpl",
          "dir": false,
          "file": true,
          "perms": "0644",
          "size": 1249,
          "sha1": "18a52f2748af1279553a951efaa16969d32539c7"
        },
        {
          "path": "views\/scripts\/admin-manage",
          "dir": true,
          "file": false,
          "perms": "0755",
          "size": 4096,
          "sha1": null
        },
        {
          "path": "views\/scripts\/admin-manage\/delete.tpl",
          "dir": false,
          "file": true,
          "perms": "0644",
          "size": 1468,
          "sha1": "861eecf69f1fd051c541f5f965bb53cb81ac0344"
        },
        {
          "path": "views\/scripts\/admin-manage\/deleteselected.tpl",
          "dir": false,
          "file": true,
          "perms": "0644",
          "size": 1720,
          "sha1": "93adcfd8c968c23c06d860a851dcf005cf8768ea"
        },
        {
          "path": "views\/scripts\/admin-manage\/index.tpl",
          "dir": false,
          "file": true,
          "perms": "0644",
          "size": 10015,
          "sha1": "3de8c12ab2a9c8361ee2d1571627a0e5d8baf8d8"
        },
        {
          "path": "views\/scripts\/admin-manage\/multi-delete.tpl",
          "dir": false,
          "file": true,
          "perms": "0644",
          "size": 1720,
          "sha1": "93adcfd8c968c23c06d860a851dcf005cf8768ea"
        },
        {
          "path": "views\/scripts\/admin-photo",
          "dir": true,
          "file": false,
          "perms": "0755",
          "size": 4096,
          "sha1": null
        },
        {
          "path": "views\/scripts\/admin-photo\/add-photo-of-day.tpl",
          "dir": false,
          "file": true,
          "perms": "0644",
          "size": 4302,
          "sha1": "450cc6ae633f29dadc4533d9326c2a37d6796e3f"
        },
        {
          "path": "views\/scripts\/admin-photo\/deletephoto.tpl",
          "dir": false,
          "file": true,
          "perms": "0644",
          "size": 1117,
          "sha1": "7322ad63d3f45f5bd943ffeab8712f859a821040"
        },
        {
          "path": "views\/scripts\/admin-photo\/edit-tab.tpl",
          "dir": false,
          "file": true,
          "perms": "0644",
          "size": 428,
          "sha1": "b61c7ea152eb2315e2bebdf963fc46256b13e6fa"
        },
        {
          "path": "views\/scripts\/admin-photo\/index.tpl",
          "dir": false,
          "file": true,
          "perms": "0644",
          "size": 5572,
          "sha1": "2d106e6575c83bbe55981fde2d50e9249301f381"
        },
        {
          "path": "views\/scripts\/admin-photo\/photo-of-day.tpl",
          "dir": false,
          "file": true,
          "perms": "0644",
          "size": 7952,
          "sha1": "6e801885158be79d9279ab9134563682ffa32e6d"
        },
        {
          "path": "views\/scripts\/admin-settings",
          "dir": true,
          "file": false,
          "perms": "0755",
          "size": 4096,
          "sha1": null
        },
        {
          "path": "views\/scripts\/admin-settings\/add-featured.tpl",
          "dir": false,
          "file": true,
          "perms": "0644",
          "size": 2050,
          "sha1": "8720e2bf4d2b55d1479fef2601f0b0c0dccfab32"
        },
        {
          "path": "views\/scripts\/admin-settings\/featured.tpl",
          "dir": false,
          "file": true,
          "perms": "0644",
          "size": 5200,
          "sha1": "08977cf6f0973f46f955d423f5db755a0548e5f8"
        },
        {
          "path": "views\/scripts\/admin-settings\/form.tpl",
          "dir": false,
          "file": true,
          "perms": "0644",
          "size": 532,
          "sha1": "02bee5caa864befdc78c106b0171ca08b04e417b"
        },
        {
          "path": "views\/scripts\/admin-settings\/index.tpl",
          "dir": false,
          "file": true,
          "perms": "0644",
          "size": 1993,
          "sha1": "14383ae94efadb5a529ecf7b8fdfda5dc7bdb32a"
        },
        {
          "path": "views\/scripts\/admin-settings\/un-featured.tpl",
          "dir": false,
          "file": true,
          "perms": "0644",
          "size": 1098,
          "sha1": "b510990b2579438a18ec82def792506c07b469b3"
        },
        {
          "path": "views\/scripts\/admin-widgets",
          "dir": true,
          "file": false,
          "perms": "0755",
          "size": 4096,
          "sha1": null
        },
        {
          "path": "views\/scripts\/admin-widgets\/index.tpl",
          "dir": false,
          "file": true,
          "perms": "0644",
          "size": 1346,
          "sha1": "f95cf54b88a38c0d9e9671dd5407a3e1d5ddc5e3"
        },
        {
          "path": "widgets",
          "dir": true,
          "file": false,
          "perms": "0755",
          "size": 4096,
          "sha1": null
        },
        {
          "path": "widgets\/album-content",
          "dir": true,
          "file": false,
          "perms": "0755",
          "size": 4096,
          "sha1": null
        },
        {
          "path": "widgets\/album-content\/Controller.php",
          "dir": false,
          "file": true,
          "perms": "0644",
          "size": 7123,
          "sha1": "82e138b1c7fe71714c89cb612e8199af8d8109b6"
        },
        {
          "path": "widgets\/album-content\/index.tpl",
          "dir": false,
          "file": true,
          "perms": "0644",
          "size": 12541,
          "sha1": "1dad4af100e20dd32d03eee2e19fa29f3d46c14a"
        },
        {
          "path": "widgets\/album-content\/sitemobile",
          "dir": true,
          "file": false,
          "perms": "0755",
          "size": 4096,
          "sha1": null
        },
        {
          "path": "widgets\/album-content\/sitemobile\/index.tpl",
          "dir": false,
          "file": true,
          "perms": "0644",
          "size": 4077,
          "sha1": "053181bd76a95d65233dec810723799de631e3e4"
        },
        {
          "path": "widgets\/album-of-the-day",
          "dir": true,
          "file": false,
          "perms": "0755",
          "size": 4096,
          "sha1": null
        },
        {
          "path": "widgets\/album-of-the-day\/Controller.php",
          "dir": false,
          "file": true,
          "perms": "0644",
          "size": 655,
          "sha1": "e2daeb3360b2c5900b9073fbbaa2b211f2cdb8ef"
        },
        {
          "path": "widgets\/album-of-the-day\/index.tpl",
          "dir": false,
          "file": true,
          "perms": "0644",
          "size": 2329,
          "sha1": "aeda2fc0af880a7e58abfeb6026620be208e716b"
        },
        {
          "path": "widgets\/featured-albums-slideshow",
          "dir": true,
          "file": false,
          "perms": "0755",
          "size": 4096,
          "sha1": null
        },
        {
          "path": "widgets\/featured-albums-slideshow\/Controller.php",
          "dir": false,
          "file": true,
          "perms": "0644",
          "size": 2316,
          "sha1": "a92d882047d35d4348ab20e7a1fc4abecfb2e748"
        },
        {
          "path": "widgets\/featured-albums-slideshow\/index.tpl",
          "dir": false,
          "file": true,
          "perms": "0644",
          "size": 10297,
          "sha1": "0fb44ecb10832540d6a12182caa6434ec007bc4e"
        },
        {
          "path": "widgets\/featured-albums",
          "dir": true,
          "file": false,
          "perms": "0755",
          "size": 4096,
          "sha1": null
        },
        {
          "path": "widgets\/featured-albums\/Controller.php",
          "dir": false,
          "file": true,
          "perms": "0644",
          "size": 2337,
          "sha1": "cbf1d0c24e77b6d9ecf9ca21a9c8ea4142aca8ca"
        },
        {
          "path": "widgets\/featured-albums\/index.tpl",
          "dir": false,
          "file": true,
          "perms": "0644",
          "size": 2566,
          "sha1": "a6ae9beadf7229a020a55a712eb75af3d1a99c32"
        },
        {
          "path": "widgets\/featured-photos-carousel",
          "dir": true,
          "file": false,
          "perms": "0755",
          "size": 4096,
          "sha1": null
        },
        {
          "path": "widgets\/featured-photos-carousel\/Controller.php",
          "dir": false,
          "file": true,
          "perms": "0644",
          "size": 1872,
          "sha1": "40b10a902c842dd9e3a1b7f1af2c4ff1a926116c"
        },
        {
          "path": "widgets\/featured-photos-carousel\/index.tpl",
          "dir": false,
          "file": true,
          "perms": "0644",
          "size": 10443,
          "sha1": "1b3fc6b52fb9fb4cca6d6efd13d162d9b4b5130c"
        },
        {
          "path": "widgets\/featured-photos",
          "dir": true,
          "file": false,
          "perms": "0755",
          "size": 4096,
          "sha1": null
        },
        {
          "path": "widgets\/featured-photos\/Controller.php",
          "dir": false,
          "file": true,
          "perms": "0644",
          "size": 2946,
          "sha1": "6a3a5692da291fd3b07ccfed309f00ef2a2bfe7a"
        },
        {
          "path": "widgets\/featured-photos\/index.tpl",
          "dir": false,
          "file": true,
          "perms": "0644",
          "size": 2748,
          "sha1": "305fdd2cac1acf8e586df2289447262539a821a9"
        },
        {
          "path": "widgets\/homephotocomment-sitestore",
          "dir": true,
          "file": false,
          "perms": "0755",
          "size": 4096,
          "sha1": null
        },
        {
          "path": "widgets\/homephotocomment-sitestore\/Controller.php",
          "dir": false,
          "file": true,
          "perms": "0644",
          "size": 1475,
          "sha1": "2a5e45d9152b29bb110f3e4b78cacc6047fa201e"
        },
        {
          "path": "widgets\/homephotocomment-sitestore\/index.tpl",
          "dir": false,
          "file": true,
          "perms": "0644",
          "size": 902,
          "sha1": "f78c8a31988abf69b24b23d0011c4f432a9f26cf"
        },
        {
          "path": "widgets\/homephotolike-sitestore",
          "dir": true,
          "file": false,
          "perms": "0755",
          "size": 4096,
          "sha1": null
        },
        {
          "path": "widgets\/homephotolike-sitestore\/Controller.php",
          "dir": false,
          "file": true,
          "perms": "0644",
          "size": 1439,
          "sha1": "16f5f23c20fde21677ba10d4f35bd0fd1ee7eea5"
        },
        {
          "path": "widgets\/homephotolike-sitestore\/index.tpl",
          "dir": false,
          "file": true,
          "perms": "0644",
          "size": 894,
          "sha1": "6f08d698079cbfdae62e18d28ac8828b51d3165b"
        },
        {
          "path": "widgets\/list-albums-tabs-view",
          "dir": true,
          "file": false,
          "perms": "0755",
          "size": 4096,
          "sha1": null
        },
        {
          "path": "widgets\/list-albums-tabs-view\/Controller.php",
          "dir": false,
          "file": true,
          "perms": "0644",
          "size": 3926,
          "sha1": "f369c99974597da0a27375134a4591b147217021"
        },
        {
          "path": "widgets\/list-albums-tabs-view\/index.tpl",
          "dir": false,
          "file": true,
          "perms": "0644",
          "size": 9158,
          "sha1": "3ab12c9ed92d2262e8f37da29efb442f6231c6c5"
        },
        {
          "path": "widgets\/list-photos-tabs-view",
          "dir": true,
          "file": false,
          "perms": "0755",
          "size": 4096,
          "sha1": null
        },
        {
          "path": "widgets\/list-photos-tabs-view\/Controller.php",
          "dir": false,
          "file": true,
          "perms": "0644",
          "size": 4998,
          "sha1": "dd35b5d1283e615f9fb0d45492e379aa074267ec"
        },
        {
          "path": "widgets\/list-photos-tabs-view\/index.tpl",
          "dir": false,
          "file": true,
          "perms": "0644",
          "size": 8949,
          "sha1": "9493b5fa59e94b9581856fd4e0c5c61a6752d800"
        },
        {
          "path": "widgets\/list-popular-albums",
          "dir": true,
          "file": false,
          "perms": "0755",
          "size": 4096,
          "sha1": null
        },
        {
          "path": "widgets\/list-popular-albums\/Controller.php",
          "dir": false,
          "file": true,
          "perms": "0644",
          "size": 2835,
          "sha1": "989b02b50bd3452d46033d90cc887b9e9891bc21"
        },
        {
          "path": "widgets\/list-popular-albums\/index.tpl",
          "dir": false,
          "file": true,
          "perms": "0644",
          "size": 2842,
          "sha1": "3e6a343d29ba9aa13a596a256752789bbe5d2832"
        },
        {
          "path": "widgets\/photo-of-the-day",
          "dir": true,
          "file": false,
          "perms": "0755",
          "size": 4096,
          "sha1": null
        },
        {
          "path": "widgets\/photo-of-the-day\/Controller.php",
          "dir": false,
          "file": true,
          "perms": "0644",
          "size": 945,
          "sha1": "6c3f3435f005dc9c9981291d9dc783634895cb7c"
        },
        {
          "path": "widgets\/photo-of-the-day\/index.tpl",
          "dir": false,
          "file": true,
          "perms": "0644",
          "size": 2861,
          "sha1": "a1da2c0cbf02dc16f672cfa6c46d85087e1e8550"
        },
        {
          "path": "widgets\/popularphotos-sitestorealbum",
          "dir": true,
          "file": false,
          "perms": "0755",
          "size": 4096,
          "sha1": null
        },
        {
          "path": "widgets\/popularphotos-sitestorealbum\/Controller.php",
          "dir": false,
          "file": true,
          "perms": "0644",
          "size": 1661,
          "sha1": "c0e7a0747056c79c8afcdfbf0572f2513a7e5681"
        },
        {
          "path": "widgets\/popularphotos-sitestorealbum\/index.tpl",
          "dir": false,
          "file": true,
          "perms": "0644",
          "size": 765,
          "sha1": "7e03d4362a65e445020e9a4b97616ab4dc45d228"
        },
        {
          "path": "widgets\/search-sitestorealbum",
          "dir": true,
          "file": false,
          "perms": "0755",
          "size": 4096,
          "sha1": null
        },
        {
          "path": "widgets\/search-sitestorealbum\/Controller.php",
          "dir": false,
          "file": true,
          "perms": "0644",
          "size": 6646,
          "sha1": "3bce61094c128be0b1a1ce5b15fba368c8fbd9f4"
        },
        {
          "path": "widgets\/search-sitestorealbum\/index.tpl",
          "dir": false,
          "file": true,
          "perms": "0644",
          "size": 10350,
          "sha1": "e270a08414f7c50e76288d3294a8c41978aebc77"
        },
        {
          "path": "widgets\/sitestore-album",
          "dir": true,
          "file": false,
          "perms": "0755",
          "size": 4096,
          "sha1": null
        },
        {
          "path": "widgets\/sitestore-album\/Controller.php",
          "dir": false,
          "file": true,
          "perms": "0644",
          "size": 4525,
          "sha1": "066e3beff8a736e6497029d1c4281483dee0f6bb"
        },
        {
          "path": "widgets\/sitestore-album\/index.tpl",
          "dir": false,
          "file": true,
          "perms": "0644",
          "size": 4154,
          "sha1": "86a4501506bf00c397d57e25e122ef4c9a555f86"
        },
        {
          "path": "widgets\/sitestore-album\/sitemobile",
          "dir": true,
          "file": false,
          "perms": "0755",
          "size": 4096,
          "sha1": null
        },
        {
          "path": "widgets\/sitestore-album\/sitemobile\/index.tpl",
          "dir": false,
          "file": true,
          "perms": "0644",
          "size": 2127,
          "sha1": "4c5693b5a408aa5be73c93816d7070aaef85d5bd"
        },
        {
          "path": "widgets\/sitestore-sponsoredalbum",
          "dir": true,
          "file": false,
          "perms": "0755",
          "size": 4096,
          "sha1": null
        },
        {
          "path": "widgets\/sitestore-sponsoredalbum\/Controller.php",
          "dir": false,
          "file": true,
          "perms": "0644",
          "size": 1097,
          "sha1": "361a54ef6311e9eef6545af37aeda0112733e704"
        },
        {
          "path": "widgets\/sitestore-sponsoredalbum\/index.tpl",
          "dir": false,
          "file": true,
          "perms": "0644",
          "size": 2611,
          "sha1": "525c05957da76527bb411fc3ff053e0533e896ab"
        },
        {
          "path": "widgets\/sitestorealbumlist-link",
          "dir": true,
          "file": false,
          "perms": "0755",
          "size": 4096,
          "sha1": null
        },
        {
          "path": "widgets\/sitestorealbumlist-link\/Controller.php",
          "dir": false,
          "file": true,
          "perms": "0644",
          "size": 484,
          "sha1": "29226fd5c554b0156d486069cca15c2c786cfdb7"
        },
        {
          "path": "widgets\/sitestorealbumlist-link\/index.tpl",
          "dir": false,
          "file": true,
          "perms": "0644",
          "size": 695,
          "sha1": "cbae41143d2ff6869b2ee7026fa54adb8588cbcf"
        },
        {
          "path": "widgets\/topcreators-sitestorealbum",
          "dir": true,
          "file": false,
          "perms": "0755",
          "size": 4096,
          "sha1": null
        },
        {
          "path": "widgets\/topcreators-sitestorealbum\/Controller.php",
          "dir": false,
          "file": true,
          "perms": "0644",
          "size": 859,
          "sha1": "5b243ef3db66ba7825c7e330a88d02f8d0edece1"
        },
        {
          "path": "widgets\/topcreators-sitestorealbum\/index.tpl",
          "dir": false,
          "file": true,
          "perms": "0644",
          "size": 2232,
          "sha1": "69d70b03b09e70bea2f230a14e76f63a044d2346"
        }
      ]
    },
    "application\/languages\/en\/sitestorealbum.csv": {
      "type": "file",
      "path": "application\/languages\/en\/sitestorealbum.csv",
      "structure": {
        "path": "sitestorealbum.csv",
        "dir": false,
        "file": true,
        "perms": "0644",
        "size": 22696,
        "sha1": "55b95a1f6e508ebb31abebde4722be4b5bf1a1c8"
      }
    }
  }
}