{
  "type": "module",
  "name": "sitestoreoffer",
  "version": "-",
  "revision": null,
  "path": "application\/modules\/Sitestoreoffer",
  "repository": null,
  "date": "Sat, 09 Apr 2016 11:45:21 +0000",
  "title": "<i><span style=\"color:#999999\">Stores \/ Marketplace - Ecommerce Offers Extension<\/span><\/i>",
  "description": "<i><span style=\"color:#999999\">Stores \/ Marketplace - Ecommerce Offers Extension<\/span><\/i>",
  "thumb": null,
  "developer": null,
  "authors": [
    "<a href=\"http:\/\/www.socialengineaddons.com\" style=\"text-decoration:underline;\" target=\"_blank\">SocialEngineAddOns<\/a>"
  ],
  "changeLog": null,
  "meta": {
    "date": "Sat, 09 Apr 2016 11:45:21 +0000",
    "title": "<i><span style=\"color:#999999\">Stores \/ Marketplace - Ecommerce Offers Extension<\/span><\/i>",
    "description": "<i><span style=\"color:#999999\">Stores \/ Marketplace - Ecommerce Offers Extension<\/span><\/i>",
    "developer": null,
    "authors": [
      "<a href=\"http:\/\/www.socialengineaddons.com\" style=\"text-decoration:underline;\" target=\"_blank\">SocialEngineAddOns<\/a>"
    ],
    "changeLog": null
  },
  "actions": [
    "install",
    "upgrade",
    "refresh",
    "enable",
    "disable"
  ],
  "callback": {
    "path": "application\/modules\/Sitestoreoffer\/settings\/install.php",
    "class": "Sitestoreoffer_Installer",
    "priority": 100
  },
  "dependencies": null,
  "tests": [
    
  ],
  "permissions": [
    
  ],
  "structure": {
    "application\/modules\/Sitestoreoffer": {
      "type": "directory",
      "path": "application\/modules\/Sitestoreoffer",
      "structure": [
        {
          "path": "Api",
          "dir": true,
          "file": false,
          "perms": "0755",
          "size": 4096,
          "sha1": null
        },
        {
          "path": "Api\/Core.php",
          "dir": false,
          "file": true,
          "perms": "0644",
          "size": 4313,
          "sha1": "a0a65878fcfb0b089e0db718dbf3512a3ba79db9"
        },
        {
          "path": "Bootstrap.php",
          "dir": false,
          "file": true,
          "perms": "0644",
          "size": 613,
          "sha1": "cf601ba9f361673800b5259373f341a214f2ec04"
        },
        {
          "path": "Form",
          "dir": true,
          "file": false,
          "perms": "0755",
          "size": 4096,
          "sha1": null
        },
        {
          "path": "Form\/.htempty",
          "dir": false,
          "file": true,
          "perms": "0644",
          "size": 0,
          "sha1": "da39a3ee5e6b4b0d3255bfef95601890afd80709"
        },
        {
          "path": "Form\/Admin",
          "dir": true,
          "file": false,
          "perms": "0755",
          "size": 4096,
          "sha1": null
        },
        {
          "path": "Form\/Admin\/EditTab.php",
          "dir": false,
          "file": true,
          "perms": "0644",
          "size": 2184,
          "sha1": "85963e026bafbc1568402e6d0841f5ca183ec787"
        },
        {
          "path": "Form\/Admin\/Global.php",
          "dir": false,
          "file": true,
          "perms": "0644",
          "size": 5820,
          "sha1": "75f7db306d98a36abf7c218c43cc2233d30dbfc7"
        },
        {
          "path": "Form\/Admin\/ItemOfDayday.php",
          "dir": false,
          "file": true,
          "perms": "0644",
          "size": 2517,
          "sha1": "518fadab9ee91677b4155c131c5a02d932cf0d52"
        },
        {
          "path": "Form\/Admin\/Manage",
          "dir": true,
          "file": false,
          "perms": "0755",
          "size": 4096,
          "sha1": null
        },
        {
          "path": "Form\/Admin\/Manage\/Filter.php",
          "dir": false,
          "file": true,
          "perms": "0644",
          "size": 850,
          "sha1": "b453fa15a1a339ab1a4a97e03733623aec9e0d92"
        },
        {
          "path": "Form\/Create.php",
          "dir": false,
          "file": true,
          "perms": "0644",
          "size": 10494,
          "sha1": "583f7f834d586d37790ee40fd5d8085d47735d2c"
        },
        {
          "path": "Form\/Edit.php",
          "dir": false,
          "file": true,
          "perms": "0644",
          "size": 8950,
          "sha1": "db411123faf921fb0e3647ec50a4f3b53196828c"
        },
        {
          "path": "Form\/ItemOfDayday.php",
          "dir": false,
          "file": true,
          "perms": "0644",
          "size": 2171,
          "sha1": "56324cd2484d9c8965cf27251d015e2b9559841f"
        },
        {
          "path": "Form\/Search.php",
          "dir": false,
          "file": true,
          "perms": "0644",
          "size": 10325,
          "sha1": "3eda3532cd677458c2702561ac611143a56f56ce"
        },
        {
          "path": "Form\/SitemobileCreate.php",
          "dir": false,
          "file": true,
          "perms": "0644",
          "size": 5420,
          "sha1": "7c4299987bd83c85c00f8310e8f4cddca2e2de4b"
        },
        {
          "path": "Model",
          "dir": true,
          "file": false,
          "perms": "0755",
          "size": 4096,
          "sha1": null
        },
        {
          "path": "Model\/Album.php",
          "dir": false,
          "file": true,
          "perms": "0644",
          "size": 1195,
          "sha1": "16e3bc662711dc8503f8077dc24976324130ede2"
        },
        {
          "path": "Model\/Claim.php",
          "dir": false,
          "file": true,
          "perms": "0644",
          "size": 515,
          "sha1": "6e9ef273e9d78483847aa5d486196bf9c0ff5c1f"
        },
        {
          "path": "Model\/DbTable",
          "dir": true,
          "file": false,
          "perms": "0755",
          "size": 4096,
          "sha1": null
        },
        {
          "path": "Model\/DbTable\/.htempty",
          "dir": false,
          "file": true,
          "perms": "0644",
          "size": 0,
          "sha1": "da39a3ee5e6b4b0d3255bfef95601890afd80709"
        },
        {
          "path": "Model\/DbTable\/Albums.php",
          "dir": false,
          "file": true,
          "perms": "0644",
          "size": 467,
          "sha1": "598573daecfa72af2986fa69f4b607fcafdb8b6e"
        },
        {
          "path": "Model\/DbTable\/Claims.php",
          "dir": false,
          "file": true,
          "perms": "0644",
          "size": 1165,
          "sha1": "7028b7b1aa845033fd6db92ccbe1fe00a7a47e13"
        },
        {
          "path": "Model\/DbTable\/Offers.php",
          "dir": false,
          "file": true,
          "perms": "0644",
          "size": 26868,
          "sha1": "0888f554a985d914b61620004abc3811c68b268d"
        },
        {
          "path": "Model\/DbTable\/Ordercoupons.php",
          "dir": false,
          "file": true,
          "perms": "0644",
          "size": 1016,
          "sha1": "b9bb0b57b96819d91a79665db30cf96585dbc922"
        },
        {
          "path": "Model\/DbTable\/Photos.php",
          "dir": false,
          "file": true,
          "perms": "0644",
          "size": 467,
          "sha1": "619a1cc6644a7a3109f083073d0555f79136402b"
        },
        {
          "path": "Model\/Offer.php",
          "dir": false,
          "file": true,
          "perms": "0644",
          "size": 17866,
          "sha1": "69758d728757cd1ac5cf70744cc1a737d0829f75"
        },
        {
          "path": "Model\/Ordercoupon.php",
          "dir": false,
          "file": true,
          "perms": "0644",
          "size": 538,
          "sha1": "4862ad349ecd8576cc19818b9d5baaa63cbd1512"
        },
        {
          "path": "Model\/Photo.php",
          "dir": false,
          "file": true,
          "perms": "0644",
          "size": 968,
          "sha1": "93e2475610a9842b248abd58855972da2b8a0cb9"
        },
        {
          "path": "Plugin",
          "dir": true,
          "file": false,
          "perms": "0755",
          "size": 4096,
          "sha1": null
        },
        {
          "path": "Plugin\/Core.php",
          "dir": false,
          "file": true,
          "perms": "0644",
          "size": 997,
          "sha1": "036db3f0054f18ab177b6e1d68740c2fdbc27363"
        },
        {
          "path": "Plugin\/Menus.php",
          "dir": false,
          "file": true,
          "perms": "0644",
          "size": 7309,
          "sha1": "eb29cfa17d903880eabbdb6cdd1f7a399c39db3a"
        },
        {
          "path": "Plugin\/Sitemobile.php",
          "dir": false,
          "file": true,
          "perms": "0644",
          "size": 8734,
          "sha1": "435b50febcbe1d7ecbe9d5fa13bb1003045d38ab"
        },
        {
          "path": "View",
          "dir": true,
          "file": false,
          "perms": "0755",
          "size": 4096,
          "sha1": null
        },
        {
          "path": "View\/Helper",
          "dir": true,
          "file": false,
          "perms": "0755",
          "size": 4096,
          "sha1": null
        },
        {
          "path": "View\/Helper\/Offermail.php",
          "dir": false,
          "file": true,
          "perms": "0644",
          "size": 581,
          "sha1": "d0c6e044ee36902b4d869c0715432578a505d5a2"
        },
        {
          "path": "controllers",
          "dir": true,
          "file": false,
          "perms": "0755",
          "size": 4096,
          "sha1": null
        },
        {
          "path": "controllers\/AdminController.php",
          "dir": false,
          "file": true,
          "perms": "0644",
          "size": 2785,
          "sha1": "0d1fbaff9a1333e8122db29cfc04e627b8ac31bb"
        },
        {
          "path": "controllers\/AdminManageController.php",
          "dir": false,
          "file": true,
          "perms": "0644",
          "size": 3852,
          "sha1": "fdd6e3d7cde9ff74c48d54bc92077fd2706f9694"
        },
        {
          "path": "controllers\/AdminSettingsController.php",
          "dir": false,
          "file": true,
          "perms": "0644",
          "size": 12080,
          "sha1": "8a1926d40024f476491d4f0ba26f90fc173a4844"
        },
        {
          "path": "controllers\/IndexController.php",
          "dir": false,
          "file": true,
          "perms": "0644",
          "size": 60802,
          "sha1": "bdba2fb8b0cca9ef594a0042bf3a92bde22c8829"
        },
        {
          "path": "externals",
          "dir": true,
          "file": false,
          "perms": "0755",
          "size": 4096,
          "sha1": null
        },
        {
          "path": "externals\/.htaccess",
          "dir": false,
          "file": true,
          "perms": "0644",
          "size": 147,
          "sha1": "9f1638a8edbe1c5d28789e017fb35b2f2465f01e"
        },
        {
          "path": "externals\/images",
          "dir": true,
          "file": false,
          "perms": "0755",
          "size": 4096,
          "sha1": null
        },
        {
          "path": "externals\/images\/.htempty",
          "dir": false,
          "file": true,
          "perms": "0644",
          "size": 0,
          "sha1": "da39a3ee5e6b4b0d3255bfef95601890afd80709"
        },
        {
          "path": "externals\/images\/arrow-btm.png",
          "dir": false,
          "file": true,
          "perms": "0644",
          "size": 206,
          "sha1": "c4b0449f98c44b0e885fe8ce13500db498a087aa"
        },
        {
          "path": "externals\/images\/arrow-top.png",
          "dir": false,
          "file": true,
          "perms": "0644",
          "size": 220,
          "sha1": "79760c01aa8240bbde66fb449b57e75c75874335"
        },
        {
          "path": "externals\/images\/dis-bg.png",
          "dir": false,
          "file": true,
          "perms": "0644",
          "size": 1538,
          "sha1": "d28736e679477779b65a06954caf64b01f4f0fff"
        },
        {
          "path": "externals\/images\/featured.png",
          "dir": false,
          "file": true,
          "perms": "0644",
          "size": 499,
          "sha1": "bf7ffa625cb2a1a990d792bd3fb42bd6d1e85cf6"
        },
        {
          "path": "externals\/images\/invite.png",
          "dir": false,
          "file": true,
          "perms": "0644",
          "size": 772,
          "sha1": "81b1777a7ff493dac44cd63e103f683ab9e2d078"
        },
        {
          "path": "externals\/images\/loader.gif",
          "dir": false,
          "file": true,
          "perms": "0644",
          "size": 723,
          "sha1": "a1fc210946a90dc13ee4f74c3c8f2cb7fca9bd7d"
        },
        {
          "path": "externals\/images\/mail.png",
          "dir": false,
          "file": true,
          "perms": "0644",
          "size": 2087,
          "sha1": "ac9a042902c2f6ff24f879c54bec0c49aaedfb57"
        },
        {
          "path": "externals\/images\/nophoto_offer_thumb_icon.png",
          "dir": false,
          "file": true,
          "perms": "0644",
          "size": 3998,
          "sha1": "5952e6b4206be6b95279138c75c7316ec93ae80c"
        },
        {
          "path": "externals\/images\/nophoto_offer_thumb_normal.png",
          "dir": false,
          "file": true,
          "perms": "0644",
          "size": 10789,
          "sha1": "ed73a0a7def550a026f0436c85530bdcc3924ee3"
        },
        {
          "path": "externals\/images\/nophoto_offer_thumb_profile.png",
          "dir": false,
          "file": true,
          "perms": "0644",
          "size": 29384,
          "sha1": "656f2951f18700fd9dba98c5726e55d379e59ca4"
        },
        {
          "path": "externals\/images\/offer.png",
          "dir": false,
          "file": true,
          "perms": "0644",
          "size": 580,
          "sha1": "6fdded87e2c5df5550391c43097326d11881092d"
        },
        {
          "path": "externals\/images\/offer_add.png",
          "dir": false,
          "file": true,
          "perms": "0644",
          "size": 819,
          "sha1": "7e2b00b2e2a1c1810b0bdce3138e4ede9719ffa8"
        },
        {
          "path": "externals\/images\/offer_delete.png",
          "dir": false,
          "file": true,
          "perms": "0644",
          "size": 775,
          "sha1": "51b4f7fdd64e15cd1486008f3ad9bf590893e805"
        },
        {
          "path": "externals\/images\/offer_edit.png",
          "dir": false,
          "file": true,
          "perms": "0644",
          "size": 779,
          "sha1": "07fbab840a8510f669535063fa75e3846775cb24"
        },
        {
          "path": "externals\/images\/offer_thumb.png",
          "dir": false,
          "file": true,
          "perms": "0644",
          "size": 4230,
          "sha1": "929a7e8e285aa8bff0a034ed966ba672448f0e62"
        },
        {
          "path": "externals\/images\/sitestoreoffer_approved0.gif",
          "dir": false,
          "file": true,
          "perms": "0644",
          "size": 1018,
          "sha1": "8f57c40b6a771c8695d412ca34beac2d46a7d22d"
        },
        {
          "path": "externals\/images\/sitestoreoffer_approved1.gif",
          "dir": false,
          "file": true,
          "perms": "0644",
          "size": 1012,
          "sha1": "5c19528232d7dca4d2eb8eb55064f6d4bdcc3e69"
        },
        {
          "path": "externals\/images\/tip-bg.png",
          "dir": false,
          "file": true,
          "perms": "0644",
          "size": 117,
          "sha1": "29206903780cb8129b2c9813c280dcaee30ee842"
        },
        {
          "path": "externals\/images\/unfeatured.png",
          "dir": false,
          "file": true,
          "perms": "0644",
          "size": 567,
          "sha1": "ad234dcdd0a9e13200acb8681e1cec70d6a8a933"
        },
        {
          "path": "externals\/scripts",
          "dir": true,
          "file": false,
          "perms": "0755",
          "size": 4096,
          "sha1": null
        },
        {
          "path": "externals\/scripts\/.htempty",
          "dir": false,
          "file": true,
          "perms": "0644",
          "size": 0,
          "sha1": "da39a3ee5e6b4b0d3255bfef95601890afd80709"
        },
        {
          "path": "externals\/scripts\/ajaxupload.js",
          "dir": false,
          "file": true,
          "perms": "0644",
          "size": 2869,
          "sha1": "c8fee339c3b77e192db20e3f058ef446db92fec0"
        },
        {
          "path": "externals\/styles",
          "dir": true,
          "file": false,
          "perms": "0755",
          "size": 4096,
          "sha1": null
        },
        {
          "path": "externals\/styles\/main.css",
          "dir": false,
          "file": true,
          "perms": "0644",
          "size": 4482,
          "sha1": "6c37fd94033ce2e4a17cdc11e3d9e349f5bb36b3"
        },
        {
          "path": "externals\/styles\/style_sitestoreoffer.css",
          "dir": false,
          "file": true,
          "perms": "0644",
          "size": 3873,
          "sha1": "7096571b1ec73c33efc3971ef12b6ab245db6fae"
        },
        {
          "path": "settings",
          "dir": true,
          "file": false,
          "perms": "0755",
          "size": 4096,
          "sha1": null
        },
        {
          "path": "settings\/content.php",
          "dir": false,
          "file": true,
          "perms": "0644",
          "size": 21591,
          "sha1": "4fb41a5d9c50970fe54691ff0764a955e58dbb3a"
        },
        {
          "path": "settings\/content_user.php",
          "dir": false,
          "file": true,
          "perms": "0644",
          "size": 1020,
          "sha1": "d818790e5155295e49cee2e9561836d882363eba"
        },
        {
          "path": "settings\/install.php",
          "dir": false,
          "file": true,
          "perms": "0644",
          "size": 1944,
          "sha1": "888771bd14003f0740645a688286e0cb5b2c8ba2"
        },
        {
          "path": "settings\/manifest.php",
          "dir": false,
          "file": true,
          "perms": "0644",
          "size": 5516,
          "sha1": "a12d254b7cbd1ca874a612188d9275d06b57f3da"
        },
        {
          "path": "settings\/my.sql",
          "dir": false,
          "file": true,
          "perms": "0644",
          "size": 0,
          "sha1": "da39a3ee5e6b4b0d3255bfef95601890afd80709"
        },
        {
          "path": "settings\/sitemobile",
          "dir": true,
          "file": false,
          "perms": "0755",
          "size": 4096,
          "sha1": null
        },
        {
          "path": "settings\/sitemobile\/content.php",
          "dir": false,
          "file": true,
          "perms": "0644",
          "size": 3622,
          "sha1": "1ef17f32b8197859b9bd069af8538b0f8884f148"
        },
        {
          "path": "settings\/sitemobile\/my.sql",
          "dir": false,
          "file": true,
          "perms": "0644",
          "size": 2303,
          "sha1": "97fdfc1fcd80c5656cf477b4134a90afff06e611"
        },
        {
          "path": "views",
          "dir": true,
          "file": false,
          "perms": "0755",
          "size": 4096,
          "sha1": null
        },
        {
          "path": "views\/scripts",
          "dir": true,
          "file": false,
          "perms": "0755",
          "size": 4096,
          "sha1": null
        },
        {
          "path": "views\/scripts\/_formButtonCancel.tpl",
          "dir": false,
          "file": true,
          "perms": "0644",
          "size": 716,
          "sha1": "0c49eb09480ccb91dec6f37b4b4605933add4736"
        },
        {
          "path": "views\/scripts\/_set-mail.tpl",
          "dir": false,
          "file": true,
          "perms": "0644",
          "size": 3083,
          "sha1": "5a21c0e141d80432574de1901f30c05353b410f2"
        },
        {
          "path": "views\/scripts\/admin-manage",
          "dir": true,
          "file": false,
          "perms": "0755",
          "size": 4096,
          "sha1": null
        },
        {
          "path": "views\/scripts\/admin-manage\/index.tpl",
          "dir": false,
          "file": true,
          "perms": "0644",
          "size": 14173,
          "sha1": "c124d9520109d79a7fb6fd17aa8ff31a81ea6ac8"
        },
        {
          "path": "views\/scripts\/admin-settings",
          "dir": true,
          "file": false,
          "perms": "0755",
          "size": 4096,
          "sha1": null
        },
        {
          "path": "views\/scripts\/admin-settings\/add-offer-of-day.tpl",
          "dir": false,
          "file": true,
          "perms": "0644",
          "size": 4318,
          "sha1": "dcb63c7dff05e31defc6e4a111cc7061b05df785"
        },
        {
          "path": "views\/scripts\/admin-settings\/delete.tpl",
          "dir": false,
          "file": true,
          "perms": "0644",
          "size": 1122,
          "sha1": "8e58799c6cfdfff1e4b1232ac968a3d6b2ed72ad"
        },
        {
          "path": "views\/scripts\/admin-settings\/edit-tab.tpl",
          "dir": false,
          "file": true,
          "perms": "0644",
          "size": 454,
          "sha1": "0880ed49a18d0e9b4d394d45e0615a8ae3e3d6e0"
        },
        {
          "path": "views\/scripts\/admin-settings\/form.tpl",
          "dir": false,
          "file": true,
          "perms": "0644",
          "size": 532,
          "sha1": "0b6675cb30a1de790e7510584c8b2f27275eccba"
        },
        {
          "path": "views\/scripts\/admin-settings\/index.tpl",
          "dir": false,
          "file": true,
          "perms": "0644",
          "size": 2341,
          "sha1": "9046d9c91842e0d7a371e0a7ed7e9a33c6102119"
        },
        {
          "path": "views\/scripts\/admin-settings\/manage-day-items.tpl",
          "dir": false,
          "file": true,
          "perms": "0644",
          "size": 8101,
          "sha1": "31f652e1a458f0dd74ff1fda7e5015ea544013f4"
        },
        {
          "path": "views\/scripts\/admin-settings\/widget.tpl",
          "dir": false,
          "file": true,
          "perms": "0644",
          "size": 5630,
          "sha1": "11257e96bffad5157dbaf02c252c85747c49716d"
        },
        {
          "path": "views\/scripts\/admin",
          "dir": true,
          "file": false,
          "perms": "0755",
          "size": 4096,
          "sha1": null
        },
        {
          "path": "views\/scripts\/admin\/delete.tpl",
          "dir": false,
          "file": true,
          "perms": "0644",
          "size": 1076,
          "sha1": "b7b4b58cae2f6035b0f20c5b866c10da6c1c3a25"
        },
        {
          "path": "views\/scripts\/admin\/detail.tpl",
          "dir": false,
          "file": true,
          "perms": "0644",
          "size": 6105,
          "sha1": "d6a8aa60a3627baa29148f7b34e8b91e6271fa82"
        },
        {
          "path": "views\/scripts\/index",
          "dir": true,
          "file": false,
          "perms": "0755",
          "size": 4096,
          "sha1": null
        },
        {
          "path": "views\/scripts\/index\/add-offer-of-day.tpl",
          "dir": false,
          "file": true,
          "perms": "0644",
          "size": 2684,
          "sha1": "89c13f3714d22140dd31722df62a6e8d469b361c"
        },
        {
          "path": "views\/scripts\/index\/create.tpl",
          "dir": false,
          "file": true,
          "perms": "0644",
          "size": 20691,
          "sha1": "215b11bdb7d7f475596364453c39edcd072f58de"
        },
        {
          "path": "views\/scripts\/index\/delete.tpl",
          "dir": false,
          "file": true,
          "perms": "0644",
          "size": 2462,
          "sha1": "bd7b57843952e670ad5d04e56381971a015a804d"
        },
        {
          "path": "views\/scripts\/index\/edit.tpl",
          "dir": false,
          "file": true,
          "perms": "0644",
          "size": 10605,
          "sha1": "769852e3a62f68b49e88c67950e20672524ce4e7"
        },
        {
          "path": "views\/scripts\/index\/enable-disable.tpl",
          "dir": false,
          "file": true,
          "perms": "0644",
          "size": 1485,
          "sha1": "c2c955cccf15bf7681b9e36e99bf8efef99490cc"
        },
        {
          "path": "views\/scripts\/index\/getoffer.tpl",
          "dir": false,
          "file": true,
          "perms": "0644",
          "size": 1533,
          "sha1": "2c36b5274462380d3b85e34b09380cc0b221bb56"
        },
        {
          "path": "views\/scripts\/index\/hot-offers-carousel.tpl",
          "dir": false,
          "file": true,
          "perms": "0644",
          "size": 18011,
          "sha1": "7567a281d9934cbdad2575cfb27dd7124c006aef"
        },
        {
          "path": "views\/scripts\/index\/index.tpl",
          "dir": false,
          "file": true,
          "perms": "0644",
          "size": 15417,
          "sha1": "de7b852fd84f4873b44a3d01627cf80a621d4039"
        },
        {
          "path": "views\/scripts\/index\/offerlist.tpl",
          "dir": false,
          "file": true,
          "perms": "0644",
          "size": 4943,
          "sha1": "f5f0dcdaa25a0fb2fc503d4ca6dcb6aad123f318"
        },
        {
          "path": "views\/scripts\/index\/preview.tpl",
          "dir": false,
          "file": true,
          "perms": "0644",
          "size": 6761,
          "sha1": "00201310388a9dd2f9cc7c9e5497eb8108ba07f2"
        },
        {
          "path": "views\/scripts\/index\/print.tpl",
          "dir": false,
          "file": true,
          "perms": "0644",
          "size": 3253,
          "sha1": "7794c7a46931143a8f4e381080721c5e66abd43a"
        },
        {
          "path": "views\/scripts\/index\/resendoffer.tpl",
          "dir": false,
          "file": true,
          "perms": "0644",
          "size": 1629,
          "sha1": "340e27b313c3c0b80a9e41a8be92a01c72939ecf"
        },
        {
          "path": "views\/scripts\/index\/sendoffer.tpl",
          "dir": false,
          "file": true,
          "perms": "0644",
          "size": 1240,
          "sha1": "64c995cbccb75fb816d78cfbcc7db9e2da1d8295"
        },
        {
          "path": "views\/scripts\/index\/sticky.tpl",
          "dir": false,
          "file": true,
          "perms": "0644",
          "size": 1792,
          "sha1": "7698df6818f796caa31143ca7925fc88361af28c"
        },
        {
          "path": "views\/scripts\/index\/upload.tpl",
          "dir": false,
          "file": true,
          "perms": "0644",
          "size": 347,
          "sha1": "4b8faa7c2a0621a7c8d9175bfc975af98a3120a3"
        },
        {
          "path": "views\/scripts\/offerWidget.tpl",
          "dir": false,
          "file": true,
          "perms": "0644",
          "size": 12447,
          "sha1": "04ccca84859159f7b05b6c16461b463a7fa5cc48"
        },
        {
          "path": "views\/scripts\/pagination",
          "dir": true,
          "file": false,
          "perms": "0755",
          "size": 4096,
          "sha1": null
        },
        {
          "path": "views\/scripts\/pagination\/pagination.tpl",
          "dir": false,
          "file": true,
          "perms": "0644",
          "size": 1466,
          "sha1": "b871b381c6f937188b928ae734b789f58eca2469"
        },
        {
          "path": "views\/sitemobile",
          "dir": true,
          "file": false,
          "perms": "0755",
          "size": 4096,
          "sha1": null
        },
        {
          "path": "views\/sitemobile\/scripts",
          "dir": true,
          "file": false,
          "perms": "0755",
          "size": 4096,
          "sha1": null
        },
        {
          "path": "views\/sitemobile\/scripts\/index",
          "dir": true,
          "file": false,
          "perms": "0755",
          "size": 4096,
          "sha1": null
        },
        {
          "path": "views\/sitemobile\/scripts\/index\/create.tpl",
          "dir": false,
          "file": true,
          "perms": "0644",
          "size": 1896,
          "sha1": "32a88709972a408fe2aff2e5cfcdaed0f56dd5c7"
        },
        {
          "path": "views\/sitemobile\/scripts\/index\/delete.tpl",
          "dir": false,
          "file": true,
          "perms": "0644",
          "size": 2290,
          "sha1": "e65a45ee088396f1990132e09f8a4f9c22aa8a86"
        },
        {
          "path": "views\/sitemobile\/scripts\/index\/edit.tpl",
          "dir": false,
          "file": true,
          "perms": "0644",
          "size": 1784,
          "sha1": "3846517125e237e154eb2f8eb72b67e284a4ab0d"
        },
        {
          "path": "views\/sitemobile\/scripts\/index\/getoffer.tpl",
          "dir": false,
          "file": true,
          "perms": "0644",
          "size": 1455,
          "sha1": "bcacffc269d166533977ce4a2499122cc41846b8"
        },
        {
          "path": "views\/sitemobile\/scripts\/index\/index.tpl",
          "dir": false,
          "file": true,
          "perms": "0644",
          "size": 10262,
          "sha1": "d24279e3b0a22981be0ca38a1af109ff5df22baa"
        },
        {
          "path": "views\/sitemobile\/scripts\/index\/offerlist.tpl",
          "dir": false,
          "file": true,
          "perms": "0644",
          "size": 4944,
          "sha1": "7c7adc144dd8f63b7abf68b98ebc218ac0c9358f"
        },
        {
          "path": "views\/sitemobile\/scripts\/index\/preview.tpl",
          "dir": false,
          "file": true,
          "perms": "0644",
          "size": 3890,
          "sha1": "37b09a529a1d0e84bf929b6056b891422179b92a"
        },
        {
          "path": "views\/sitemobile\/scripts\/index\/resendoffer.tpl",
          "dir": false,
          "file": true,
          "perms": "0644",
          "size": 1592,
          "sha1": "93624a4810c460265ca33ad6ffb76967a243effb"
        },
        {
          "path": "views\/sitemobile\/scripts\/index\/sendoffer.tpl",
          "dir": false,
          "file": true,
          "perms": "0644",
          "size": 1161,
          "sha1": "ae3083a827d70ff6c6b9197dd061582c0cd7997e"
        },
        {
          "path": "views\/sitemobile\/scripts\/index\/sticky.tpl",
          "dir": false,
          "file": true,
          "perms": "0644",
          "size": 1931,
          "sha1": "e54090e395de6a32fb452bc80eb9ebb6bc3ef306"
        },
        {
          "path": "views\/sitemobile\/scripts\/index\/upload.tpl",
          "dir": false,
          "file": true,
          "perms": "0644",
          "size": 348,
          "sha1": "7738c73c558276250d6089b7c7d5dda8c21c89c8"
        },
        {
          "path": "widgets",
          "dir": true,
          "file": false,
          "perms": "0755",
          "size": 4096,
          "sha1": null
        },
        {
          "path": "widgets\/hot-offers-carousel",
          "dir": true,
          "file": false,
          "perms": "0755",
          "size": 4096,
          "sha1": null
        },
        {
          "path": "widgets\/hot-offers-carousel\/Controller.php",
          "dir": false,
          "file": true,
          "perms": "0644",
          "size": 2292,
          "sha1": "25b99071c9afc3d49da11ba6ee8180bf93760518"
        },
        {
          "path": "widgets\/hot-offers-carousel\/index.tpl",
          "dir": false,
          "file": true,
          "perms": "0644",
          "size": 20683,
          "sha1": "c0611089b8d2f00733309e4a0d1be4a899612b5d"
        },
        {
          "path": "widgets\/hot-offers-slideshow",
          "dir": true,
          "file": false,
          "perms": "0755",
          "size": 4096,
          "sha1": null
        },
        {
          "path": "widgets\/hot-offers-slideshow\/Controller.php",
          "dir": false,
          "file": true,
          "perms": "0644",
          "size": 1915,
          "sha1": "8edcf1f18b44a166c0fcdbe75f7b35e1e970a57a"
        },
        {
          "path": "widgets\/hot-offers-slideshow\/index.tpl",
          "dir": false,
          "file": true,
          "perms": "0644",
          "size": 14624,
          "sha1": "e7bae2532738777303bbc7fbd99bd3210dfcc810"
        },
        {
          "path": "widgets\/hot-offers-slideshow\/sitemobile",
          "dir": true,
          "file": false,
          "perms": "0755",
          "size": 4096,
          "sha1": null
        },
        {
          "path": "widgets\/hot-offers-slideshow\/sitemobile\/index.tpl",
          "dir": false,
          "file": true,
          "perms": "0644",
          "size": 2392,
          "sha1": "14b5141c9f7d85bf742e3d1b1e92c81f3d7b6262"
        },
        {
          "path": "widgets\/list-offers-tabs-view",
          "dir": true,
          "file": false,
          "perms": "0755",
          "size": 4096,
          "sha1": null
        },
        {
          "path": "widgets\/list-offers-tabs-view\/Controller.php",
          "dir": false,
          "file": true,
          "perms": "0644",
          "size": 4967,
          "sha1": "a29e12c8f4497472e9f573d227cf59e0a21b3ecf"
        },
        {
          "path": "widgets\/list-offers-tabs-view\/index.tpl",
          "dir": false,
          "file": true,
          "perms": "0644",
          "size": 15233,
          "sha1": "6c08f3b636678f241b26e8b92c5916a75c7fb2c0"
        },
        {
          "path": "widgets\/offer-content",
          "dir": true,
          "file": false,
          "perms": "0755",
          "size": 4096,
          "sha1": null
        },
        {
          "path": "widgets\/offer-content\/Controller.php",
          "dir": false,
          "file": true,
          "perms": "0644",
          "size": 6708,
          "sha1": "ae905412b5f28cbc6583deb844408ad2ab8bf11d"
        },
        {
          "path": "widgets\/offer-content\/index.tpl",
          "dir": false,
          "file": true,
          "perms": "0644",
          "size": 15595,
          "sha1": "13c9ff2f7eb83cf20da88bb8d2310120df521ce5"
        },
        {
          "path": "widgets\/offer-content\/sitemobile",
          "dir": true,
          "file": false,
          "perms": "0755",
          "size": 4096,
          "sha1": null
        },
        {
          "path": "widgets\/offer-content\/sitemobile\/index.tpl",
          "dir": false,
          "file": true,
          "perms": "0644",
          "size": 6034,
          "sha1": "0197ac14a53246e0708a7f7511bf912658776ad3"
        },
        {
          "path": "widgets\/offer-of-the-day",
          "dir": true,
          "file": false,
          "perms": "0755",
          "size": 4096,
          "sha1": null
        },
        {
          "path": "widgets\/offer-of-the-day\/Controller.php",
          "dir": false,
          "file": true,
          "perms": "0644",
          "size": 1244,
          "sha1": "cdea474477ecbb1adf8c2a0fe2d0221c7b684105"
        },
        {
          "path": "widgets\/offer-of-the-day\/index.tpl",
          "dir": false,
          "file": true,
          "perms": "0644",
          "size": 8726,
          "sha1": "dcaac80502bf24f52236960498bba7874bdd30f2"
        },
        {
          "path": "widgets\/offers-sitestoreoffers",
          "dir": true,
          "file": false,
          "perms": "0755",
          "size": 4096,
          "sha1": null
        },
        {
          "path": "widgets\/offers-sitestoreoffers\/Controller.php",
          "dir": false,
          "file": true,
          "perms": "0644",
          "size": 1668,
          "sha1": "b487275cb15cf517c9086d2a06659dc256bdf1e9"
        },
        {
          "path": "widgets\/offers-sitestoreoffers\/index.tpl",
          "dir": false,
          "file": true,
          "perms": "0644",
          "size": 481,
          "sha1": "642e774130b53e60f4b751d20d8ee1e8454dcb43"
        },
        {
          "path": "widgets\/profile-sitestoreoffers",
          "dir": true,
          "file": false,
          "perms": "0755",
          "size": 4096,
          "sha1": null
        },
        {
          "path": "widgets\/profile-sitestoreoffers\/Controller.php",
          "dir": false,
          "file": true,
          "perms": "0644",
          "size": 6452,
          "sha1": "2ed690cbe9c472f3b83e54fa403de6d4d27dfc9a"
        },
        {
          "path": "widgets\/profile-sitestoreoffers\/index.tpl",
          "dir": false,
          "file": true,
          "perms": "0644",
          "size": 21758,
          "sha1": "f5329a0e08f5344d408cf9a3b2ff7bbb2cbc312f"
        },
        {
          "path": "widgets\/search-sitestoreoffer",
          "dir": true,
          "file": false,
          "perms": "0755",
          "size": 4096,
          "sha1": null
        },
        {
          "path": "widgets\/search-sitestoreoffer\/Controller.php",
          "dir": false,
          "file": true,
          "perms": "0644",
          "size": 7708,
          "sha1": "d7be38dfeda00a15ade72dbed64c5a829e8ea14c"
        },
        {
          "path": "widgets\/search-sitestoreoffer\/index.tpl",
          "dir": false,
          "file": true,
          "perms": "0644",
          "size": 10351,
          "sha1": "fdab878b5aadf0d68d6e76564dcc0b7e5a8eb07f"
        },
        {
          "path": "widgets\/sitemobile-profile-sitestoreoffers",
          "dir": true,
          "file": false,
          "perms": "0755",
          "size": 4096,
          "sha1": null
        },
        {
          "path": "widgets\/sitemobile-profile-sitestoreoffers\/Controller.php",
          "dir": false,
          "file": true,
          "perms": "0644",
          "size": 3161,
          "sha1": "55172149c6adbf5a1e20586e2661a4e7d5fc55ea"
        },
        {
          "path": "widgets\/sitemobile-profile-sitestoreoffers\/index.tpl",
          "dir": false,
          "file": true,
          "perms": "0644",
          "size": 6156,
          "sha1": "5a5e626e0466b1d46d4d65660d73faaa2c80070d"
        },
        {
          "path": "widgets\/sitestore-dateoffer",
          "dir": true,
          "file": false,
          "perms": "0755",
          "size": 4096,
          "sha1": null
        },
        {
          "path": "widgets\/sitestore-dateoffer\/Controller.php",
          "dir": false,
          "file": true,
          "perms": "0644",
          "size": 2985,
          "sha1": "174e5b6d1141f2acfb4011b60ec8ed040430273f"
        },
        {
          "path": "widgets\/sitestore-dateoffer\/index.tpl",
          "dir": false,
          "file": true,
          "perms": "0644",
          "size": 16332,
          "sha1": "fb8c8b5ed285f105a2e59b31c2dbc23e8678731d"
        },
        {
          "path": "widgets\/sitestore-hotoffer",
          "dir": true,
          "file": false,
          "perms": "0755",
          "size": 4096,
          "sha1": null
        },
        {
          "path": "widgets\/sitestore-hotoffer\/Controller.php",
          "dir": false,
          "file": true,
          "perms": "0644",
          "size": 1743,
          "sha1": "c4298de3ff8076b25e84d19667aad7bfda315ce6"
        },
        {
          "path": "widgets\/sitestore-hotoffer\/index.tpl",
          "dir": false,
          "file": true,
          "perms": "0644",
          "size": 479,
          "sha1": "dd7db5cea22dae50b57a3cd2854cb772eec9dce9"
        },
        {
          "path": "widgets\/sitestore-latestoffer",
          "dir": true,
          "file": false,
          "perms": "0755",
          "size": 4096,
          "sha1": null
        },
        {
          "path": "widgets\/sitestore-latestoffer\/Controller.php",
          "dir": false,
          "file": true,
          "perms": "0644",
          "size": 1869,
          "sha1": "4197928c877d7934ead0bc1075568df2bb4f900a"
        },
        {
          "path": "widgets\/sitestore-latestoffer\/index.tpl",
          "dir": false,
          "file": true,
          "perms": "0644",
          "size": 633,
          "sha1": "265b7b1a7cca14f94437c86242fde997b284ed66"
        },
        {
          "path": "widgets\/sitestore-offer",
          "dir": true,
          "file": false,
          "perms": "0755",
          "size": 4096,
          "sha1": null
        },
        {
          "path": "widgets\/sitestore-offer\/Controller.php",
          "dir": false,
          "file": true,
          "perms": "0644",
          "size": 5496,
          "sha1": "1e9712eb97da97d25120a0435747701873d0e808"
        },
        {
          "path": "widgets\/sitestore-offer\/index.tpl",
          "dir": false,
          "file": true,
          "perms": "0644",
          "size": 11155,
          "sha1": "6c2b1febaa9b6d57a095747c69e82c53fb5ffebc"
        },
        {
          "path": "widgets\/sitestore-offer\/sitemobile",
          "dir": true,
          "file": false,
          "perms": "0755",
          "size": 4096,
          "sha1": null
        },
        {
          "path": "widgets\/sitestore-offer\/sitemobile\/index.tpl",
          "dir": false,
          "file": true,
          "perms": "0644",
          "size": 6246,
          "sha1": "67cf696412cbe8c2894e50f6650a0a2c57e3f8b8"
        },
        {
          "path": "widgets\/sitestoreofferlist-link",
          "dir": true,
          "file": false,
          "perms": "0755",
          "size": 4096,
          "sha1": null
        },
        {
          "path": "widgets\/sitestoreofferlist-link\/Controller.php",
          "dir": false,
          "file": true,
          "perms": "0644",
          "size": 954,
          "sha1": "6498e621646be4cea80a0f7f7280778dae3b57ec"
        },
        {
          "path": "widgets\/sitestoreofferlist-link\/index.tpl",
          "dir": false,
          "file": true,
          "perms": "0644",
          "size": 720,
          "sha1": "7d8c77919b6fc26cbd6085c38a384e2dd136b117"
        },
        {
          "path": "widgets\/topcreators-sitestoreoffer",
          "dir": true,
          "file": false,
          "perms": "0755",
          "size": 4096,
          "sha1": null
        },
        {
          "path": "widgets\/topcreators-sitestoreoffer\/Controller.php",
          "dir": false,
          "file": true,
          "perms": "0644",
          "size": 1340,
          "sha1": "7f1fb04fb7b784835fd20b864f1771a9d206f014"
        },
        {
          "path": "widgets\/topcreators-sitestoreoffer\/index.tpl",
          "dir": false,
          "file": true,
          "perms": "0644",
          "size": 2290,
          "sha1": "7ac3485def84f1d5c7c9c8aa8402ecdc9c8b17b5"
        }
      ]
    },
    "application\/languages\/en\/sitestoreoffer.csv": {
      "type": "file",
      "path": "application\/languages\/en\/sitestoreoffer.csv",
      "structure": {
        "path": "sitestoreoffer.csv",
        "dir": false,
        "file": true,
        "perms": "0644",
        "size": 15469,
        "sha1": "565bc0e079dea440516ba5986a1ffe136036309c"
      }
    }
  }
}