{
  "type": "module",
  "name": "accessmanager",
  "version": "4.7.0p1",
  "revision": null,
  "path": "application\/modules\/Accessmanager",
  "repository": null,
  "date": "Wed, 13 Apr 2016 08:39:44 +0000",
  "title": "Access Manager",
  "description": "",
  "thumb": null,
  "developer": null,
  "authors": [
    "WebHive Team"
  ],
  "changeLog": null,
  "meta": {
    "date": "Wed, 13 Apr 2016 08:39:44 +0000",
    "title": "Access Manager",
    "description": "",
    "developer": null,
    "authors": [
      "WebHive Team"
    ],
    "changeLog": null
  },
  "actions": [
    "install",
    "upgrade",
    "refresh",
    "enable",
    "disable"
  ],
  "callback": {
    "path": "application\/modules\/Accessmanager\/settings\/install.php",
    "class": "Ac\u0441essmanager_Installer",
    "priority": 100
  },
  "dependencies": null,
  "tests": [
    
  ],
  "permissions": [
    
  ],
  "structure": {
    "application\/modules\/Accessmanager": {
      "type": "directory",
      "path": "application\/modules\/Accessmanager",
      "structure": [
        {
          "path": "Plugin",
          "dir": true,
          "file": false,
          "perms": "0755",
          "size": 4096,
          "sha1": null
        },
        {
          "path": "Plugin\/Core.php",
          "dir": false,
          "file": true,
          "perms": "0664",
          "size": 2879,
          "sha1": "eb653509e8341127da75b5a476ce82ff888d0fbd"
        },
        {
          "path": "Bootstrap.php",
          "dir": false,
          "file": true,
          "perms": "0644",
          "size": 261,
          "sha1": "70c05238f42947a9a78ef236341ce35944995151"
        },
        {
          "path": "Validate",
          "dir": true,
          "file": false,
          "perms": "0755",
          "size": 4096,
          "sha1": null
        },
        {
          "path": "Validate\/Url.php",
          "dir": false,
          "file": true,
          "perms": "0644",
          "size": 552,
          "sha1": "edf493b41cf4a5a95b9be75997e7192294abd757"
        },
        {
          "path": "controllers",
          "dir": true,
          "file": false,
          "perms": "0755",
          "size": 4096,
          "sha1": null
        },
        {
          "path": "controllers\/AdminSettingsController.php",
          "dir": false,
          "file": true,
          "perms": "0644",
          "size": 7697,
          "sha1": "d82957c876630437b8dbb95ac227b0b3627f76d9"
        },
        {
          "path": "controllers\/IndexController.php",
          "dir": false,
          "file": true,
          "perms": "0644",
          "size": 238,
          "sha1": "18b84e6b8e83481ea675e560fe3b166c7c8475fd"
        },
        {
          "path": "views",
          "dir": true,
          "file": false,
          "perms": "0755",
          "size": 4096,
          "sha1": null
        },
        {
          "path": "views\/scripts",
          "dir": true,
          "file": false,
          "perms": "0755",
          "size": 4096,
          "sha1": null
        },
        {
          "path": "views\/scripts\/admin-settings",
          "dir": true,
          "file": false,
          "perms": "0755",
          "size": 4096,
          "sha1": null
        },
        {
          "path": "views\/scripts\/admin-settings\/addurl.tpl",
          "dir": false,
          "file": true,
          "perms": "0644",
          "size": 1678,
          "sha1": "dcc868a8c873cf7e96940dada538cceae9b6b014"
        },
        {
          "path": "views\/scripts\/admin-settings\/index.tpl",
          "dir": false,
          "file": true,
          "perms": "0644",
          "size": 410,
          "sha1": "3998cca73c19c437f562826fb131b4459a25e794"
        },
        {
          "path": "views\/scripts\/admin-settings\/getroute.tpl",
          "dir": false,
          "file": true,
          "perms": "0644",
          "size": 37,
          "sha1": "eb44353161c7a29eb6007025beb2d3436358f052"
        },
        {
          "path": "views\/scripts\/admin-settings\/editurl.tpl",
          "dir": false,
          "file": true,
          "perms": "0644",
          "size": 1463,
          "sha1": "d0076fee767c7e1fe4ed5770921e3465f96c1fcf"
        },
        {
          "path": "views\/scripts\/admin-settings\/urls.tpl",
          "dir": false,
          "file": true,
          "perms": "0644",
          "size": 1345,
          "sha1": "655402de6061100dc5558e9ea7a87cb385a8b6b4"
        },
        {
          "path": "views\/scripts\/admin-settings\/deleteurl.tpl",
          "dir": false,
          "file": true,
          "perms": "0644",
          "size": 655,
          "sha1": "5001a655832164970196f3ddebbe04c9a0c6a789"
        },
        {
          "path": "views\/scripts\/index",
          "dir": true,
          "file": false,
          "perms": "0755",
          "size": 4096,
          "sha1": null
        },
        {
          "path": "views\/scripts\/index\/index.tpl",
          "dir": false,
          "file": true,
          "perms": "0644",
          "size": 85,
          "sha1": "d9c8b9c5d37d22621e84650e6dc33b5193222028"
        },
        {
          "path": "Form",
          "dir": true,
          "file": false,
          "perms": "0755",
          "size": 4096,
          "sha1": null
        },
        {
          "path": "Form\/Admin",
          "dir": true,
          "file": false,
          "perms": "0755",
          "size": 4096,
          "sha1": null
        },
        {
          "path": "Form\/Admin\/Settings",
          "dir": true,
          "file": false,
          "perms": "0755",
          "size": 4096,
          "sha1": null
        },
        {
          "path": "Form\/Admin\/Settings\/Url.php",
          "dir": false,
          "file": true,
          "perms": "0644",
          "size": 2810,
          "sha1": "5f6cc74bd82d3fb8717602eeef98645eb63d9e7f"
        },
        {
          "path": "Form\/Admin\/Settings\/General.php",
          "dir": false,
          "file": true,
          "perms": "0644",
          "size": 608,
          "sha1": "f031ea6a94ff161226e85cdb02b5f6348ec4e970"
        },
        {
          "path": "Model",
          "dir": true,
          "file": false,
          "perms": "0755",
          "size": 4096,
          "sha1": null
        },
        {
          "path": "Model\/Url.php",
          "dir": false,
          "file": true,
          "perms": "0644",
          "size": 1087,
          "sha1": "93b7c266d7e31a5411a42d8d296c353a70280560"
        },
        {
          "path": "Model\/DbTable",
          "dir": true,
          "file": false,
          "perms": "0755",
          "size": 4096,
          "sha1": null
        },
        {
          "path": "Model\/DbTable\/Urls.php",
          "dir": false,
          "file": true,
          "perms": "0644",
          "size": 196,
          "sha1": "94dcf03e19ea57e392e3464dd672d2bff5acaedb"
        },
        {
          "path": "settings",
          "dir": true,
          "file": false,
          "perms": "0755",
          "size": 4096,
          "sha1": null
        },
        {
          "path": "settings\/my.sql",
          "dir": false,
          "file": true,
          "perms": "0644",
          "size": 1338,
          "sha1": "a06d485a93881e945c8bcc5fc4440a44706f80cd"
        },
        {
          "path": "settings\/manifest.php",
          "dir": false,
          "file": true,
          "perms": "0664",
          "size": 1224,
          "sha1": "fd7671262bd77919b1b700ef7e4cbe0a7cd86773"
        },
        {
          "path": "settings\/install.php",
          "dir": false,
          "file": true,
          "perms": "0644",
          "size": 2797,
          "sha1": "349d1ced5ea8fa6f56a6da16b82c6fcd08519470"
        },
        {
          "path": "Api",
          "dir": true,
          "file": false,
          "perms": "0755",
          "size": 4096,
          "sha1": null
        },
        {
          "path": "Api\/Core.php",
          "dir": false,
          "file": true,
          "perms": "0644",
          "size": 70,
          "sha1": "5fdf5e2695a1e464042c8296b4abe9aa475d8b16"
        },
        {
          "path": "externals",
          "dir": true,
          "file": false,
          "perms": "0755",
          "size": 4096,
          "sha1": null
        },
        {
          "path": "externals\/.htaccess",
          "dir": false,
          "file": true,
          "perms": "0644",
          "size": 147,
          "sha1": "9f1638a8edbe1c5d28789e017fb35b2f2465f01e"
        },
        {
          "path": "externals\/images",
          "dir": true,
          "file": false,
          "perms": "0755",
          "size": 4096,
          "sha1": null
        },
        {
          "path": "externals\/images\/add_url.png",
          "dir": false,
          "file": true,
          "perms": "0644",
          "size": 801,
          "sha1": "69d0a342bf0ee448a78db62a70dfc8f54ae9cf9e"
        },
        {
          "path": "externals\/styles",
          "dir": true,
          "file": false,
          "perms": "0755",
          "size": 4096,
          "sha1": null
        },
        {
          "path": "externals\/styles\/main.css",
          "dir": false,
          "file": true,
          "perms": "0644",
          "size": 0,
          "sha1": "da39a3ee5e6b4b0d3255bfef95601890afd80709"
        },
        {
          "path": "externals\/styles\/admin",
          "dir": true,
          "file": false,
          "perms": "0755",
          "size": 4096,
          "sha1": null
        },
        {
          "path": "externals\/styles\/admin\/main.css",
          "dir": false,
          "file": true,
          "perms": "0644",
          "size": 1893,
          "sha1": "2f7fc51fcf2ce02a2c1a1ef7863ea3de173bdbbc"
        }
      ]
    },
    "application\/languages\/en\/accessmanager.csv": {
      "type": "file",
      "path": "application\/languages\/en\/accessmanager.csv",
      "structure": {
        "path": "accessmanager.csv",
        "dir": false,
        "file": true,
        "perms": "0644",
        "size": 1742,
        "sha1": "c8113a8d40afdbccbe41d3eddb0b2c97fc32d56f"
      }
    }
  }
}